Study 1
…
## # A tibble: 4 x 3
##   Group    HeadlineType `Yes Responses (%)`
##   <chr>    <chr>                      <dbl>
## 1 Accuracy Real                       0.654
## 2 Accuracy Fake                       0.222
## 3 Sharing  Real                       0.463
## 4 Sharing  Fake                       0.360

# Load data into new variable for scatterplots
study1 <- readxl::read_xlsx("NudgeDataStudy1Scatterplots.xlsx") 
# Print data
print(study1)

## # A tibble: 217 x 49
##    QuestionType   Fake  Real Discern CRT_ACC ScienceKnowledge   MMS
##           <dbl>  <dbl> <dbl>   <dbl>   <dbl>            <dbl> <dbl>
##  1            1 0      0.6     0.6     0                0.941   3.6
##  2            1 0.533  0.667   0.133   0.5              0.235   3.9
##  3            1 0      0.133   0.133   0.5              0.882   4.7
##  4            1 0.0667 0.733   0.667   0.5              0.706   3.4
##  5            1 0.533  0.867   0.333   1                0.529   4.2
##  6            1 0      0.867   0.867   0.333            0.941   4.8
##  7            1 0.0667 0.333   0.267   0.167            0.176   6.1
##  8            1 0      0.667   0.667   0.333            0.235   5.8
##  9            1 0.0667 0.733   0.667   1                0.765   3.6
## 10            1 0.0667 0.6     0.533   0.667            0.706   3.3
## #  with 207 more rows, and 42 more variables: COVID_concern_1 <chr>,
## #   COVID_check_news <dbl>, Condition <dbl>, ResponseID <chr>, Fake1_1 <dbl>,
## #   Fake1_2 <dbl>, Fake1_3 <dbl>, Fake1_4 <dbl>, Fake1_5 <dbl>, Fake1_6 <dbl>,
## #   Fake1_7 <dbl>, Fake1_8 <dbl>, Fake1_9 <dbl>, Fake1_10 <dbl>,
## #   Fake1_11 <dbl>, Fake1_12 <dbl>, Fake1_13 <dbl>, Fake1_14 <dbl>,
## #   Fake1_15 <dbl>, `Fake No. N` <dbl>, `Fake No. Y` <dbl>, Real1_1 <dbl>,
## #   Real1_2 <dbl>, Real1_3 <dbl>, Real1_4 <dbl>, Real1_5 <dbl>, Real1_6 <dbl>,
## #   Real1_7 <dbl>, Real1_8 <dbl>, Real1_9 <dbl>, Real1_10 <dbl>,
## #   Real1_11 <dbl>, Real1_12 <dbl>, Real1_13 <dbl>, Real1_14 <dbl>,
…
