Study 2
…
Load the data

# Load data into new variable 
study2 <- readxl::read_xlsx("NudgeDataStudy2.xlsx")

## New names:
## * `` -> ...31

# Print data
print(study2)

## # A tibble: 222 x 47
##    Group  Fake  Real Discern CRT_ACC SciKnow   MMS ResponseID Finished rid  
##    <dbl> <dbl> <dbl>   <dbl>   <dbl>   <dbl> <dbl> <chr>         <dbl> <chr>
##  1     1  4.93  4.73 -0.2      0       0.529   5.2 R_1isxtrw        1 5e6c
##  2     1  5.4   5.67  0.267    0       0.294   3.3 R_2tzBU81        1 5e6d
##  3     2  3.8   4.07  0.267    0       0.235   4.6 R_3JfvU36        1 5e6c
##  4     1  5.93  5.87 -0.0667   0       0.529   6.2 R_VJgdtWU        1 5e6d
##  5     1  2.93  2.13 -0.8      0.667   0.882   4.1 R_wSLqU87        1 5e6d
##  6     1  5.73  5.6  -0.133    0.833   0.882   6.1 R_2alR23X        1 5e6d
##  7     2  5.87  5.8  -0.0667   0       0.294   5.2 R_3jUvbU7        1 5e6e
##  8     2  1.67  1.8   0.133    0.5     0.647   4.2 R_3rDmInq        1 5e6c
##  9     1  1.27  1.07 -0.2      0.667   0.588   2.7 R_2X7puGf        1 5e6c
## 10     1  3.8   3.27 -0.533    0.167   0.471   3.2 R_2xLRpSn        1 5e6d
## #  with 212 more rows, and 37 more variables: age <dbl>, gender <dbl>,
## #   COVID_concern_1 <chr>, COVID_news <dbl>, Fake1_1 <dbl>, Fake1_2 <dbl>,
## #   Fake1_3 <dbl>, Fake1_4 <dbl>, Fake1_5 <dbl>, Fake1_6 <dbl>, Fake1_7 <dbl>,
## #   Fake1_8 <dbl>, Fake1_9 <dbl>, Fake1_10 <dbl>, Fake1_11 <dbl>,
## #   Fake1_12 <dbl>, Fake1_13 <dbl>, Fake1_14 <dbl>, Fake1_15 <dbl>, `Fake
## #   Average Sharing Tendency` <dbl>, ...31 <dbl>, Real1_1 <dbl>, Real1_2 <dbl>,
## #   Real1_3 <dbl>, Real1_4 <dbl>, Real1_5 <dbl>, Real1_6 <dbl>, Real1_7 <dbl>,
## #   Real1_8 <dbl>, Real1_9 <dbl>, Real1_10 <dbl>, Real1_11 <dbl>,
## #   Real1_12 <dbl>, Real1_13 <dbl>, Real1_14 <dbl>, Real1_15 <dbl>, `Real
…
